<svg width="38" height="42" viewBox="0 0 38 42" fill="none" xmlns="http://www.w3.org/2000/svg">
<path d="M3.85298 37.8015L0.482483 0H37.5175L34.1425 37.7955L18.9775 42L3.85298 37.8015Z" fill="#E44F26"/>
</svg>
