<svg width="12" height="27" viewBox="0 0 12 27" fill="none" xmlns="http://www.w3.org/2000/svg">
<path d="M12 10.1105H5.865L5.442 5.363H12V0.726501H0.375L0.486001 1.9715L1.6245 14.747H12V10.1105ZM12 22.151L11.979 22.157L6.816 20.7635L6.486 17.066H1.8315L2.481 24.344L11.979 26.981L12 26.975V22.151Z" fill="#EBEBEB"/>
</svg>
